{
  "count": 5000,
  "overflow": true,
  "next": "https://api.predicthq.com/v1/events/?category=sports&offset=10",
  "previous": null,
  "results": [
    {
      "relevance": 1,
      "id": "W4B3vvRqnpDu9aUPeD",
      "title": "Biloxi Shuckers vs Pensacola Blue Wahoos",
      "description": "",
      "category": "sports",
      "labels": [
        "baseball",
        "minor-league",
        "sport"
      ],
      "rank": 51,
      "local_rank": 80,
      "aviation_rank": 0,
      "phq_attendance": 1112,
      "entities": [
        {
          "name": "Admiral Fetterman Field",
          "type": "venue",
          "entity_id": "GFSELyc2dTNsk8GWaRJ3kL",
          "formatted_address": "449 West Main Street\nPensacola, FL 32502\nUnited States of America"
        }
      ],
      "duration": 0,
      "start": "2021-07-02T23:35:00Z",
      "end": "2021-07-02T23:35:00Z",
      "predicted_end": "2021-07-03T02:25:00Z",
      "updated": "2021-05-25T12:14:12Z",
      "first_seen": "2021-05-07T18:08:42Z",
      "timezone": "America/Chicago",
      "location": [
        -87.2186,
        30.4045
      ],
      "scope": "locality",
      "country": "US",
      "place_hierarchies": [
        [
          "6295630",
          "6255149",
          "6252001",
          "4155751",
          "4154550",
          "4168228"
        ]
      ],
      "state": "active",
      "brand_safe": true,
      "private": false
    },
    {
      "relevance": 1,
      "id": "qk2eFyMmqRP2HznSmA",
      "title": "Mississippi Braves vs Montgomery Biscuits",
      "description": "",
      "category": "sports",
      "labels": [
        "baseball",
        "minor-league",
        "sport"
      ],
      "rank": 54,
      "local_rank": 79,
      "aviation_rank": 0,
      "phq_attendance": 1596,
      "entities": [
        {
          "name": "Montgomery Riverwalk Stadium",
          "type": "venue",
          "entity_id": "8s3jV2qUCSS7CEeCc8mRu4",
          "formatted_address": "Montgomery, AL 36104\nUnited States of America"
        }
      ],
      "duration": 0,
      "start": "2021-07-02T23:35:00Z",
      "end": "2021-07-02T23:35:00Z",
      "predicted_end": "2021-07-03T02:25:00Z",
      "updated": "2021-05-04T05:26:39Z",
      "first_seen": "2021-05-04T00:42:33Z",
      "timezone": "America/Chicago",
      "location": [
        -86.310546,
        32.382438
      ],
      "scope": "locality",
      "country": "US",
      "place_hierarchies": [
        [
          "6295630",
          "6255149",
          "6252001",
          "4829764",
          "4076795",
          "4076784"
        ],
        [
          "6295630",
          "6255149",
          "6252001",
          "4829764",
          "4076795",
          "4080484"
        ]
      ],
      "state": "active",
      "brand_safe": true,
      "private": false
    },
    {
      "relevance": 1,
      "id": "5HSEqXrphcGWHaczwV",
      "title": "USL Championship - Tampa Bay Rowdies vs Charleston Battery",
      "description": "",
      "category": "sports",
      "labels": [
        "soccer",
        "sport"
      ],
      "rank": 60,
      "local_rank": 81,
      "aviation_rank": 0,
      "phq_attendance": 3290,
      "entities": [
        {
          "name": "Al Lang Stadium",
          "type": "venue",
          "entity_id": "4PqMjLAqmwNwsjyZ96Pjjm",
          "formatted_address": "230 1st Street Southeast\nSaint Petersburg, FL 33701\nUnited States of America"
        }
      ],
      "duration": 0,
      "start": "2021-07-02T23:30:00Z",
      "end": "2021-07-02T23:30:00Z",
      "predicted_end": "2021-07-03T01:20:00Z",
      "updated": "2021-05-26T04:01:05Z",
      "first_seen": "2021-03-31T03:42:23Z",
      "timezone": "America/New_York",
      "location": [
        -82.632982,
        27.768012
      ],
      "scope": "locality",
      "country": "US",
      "place_hierarchies": [
        [
          "6295630",
          "6255149",
          "6252001",
          "4155751",
          "4168618",
          "4171563"
        ],
        [
          "6295630",
          "6255149",
          "6252001",
          "4155751",
          "4158712",
          "4174757"
        ]
      ],
      "state": "active",
      "brand_safe": true,
      "private": false
    },
    {
      "relevance": 1,
      "id": "JSrvghCCK8V3MuhKq4",
      "title": "NWSL - Washington Spirit vs Chicago Red Stars",
      "description": "",
      "category": "sports",
      "labels": [
        "soccer",
        "sport"
      ],
      "rank": 61,
      "local_rank": 85,
      "aviation_rank": 0,
      "phq_attendance": 3752,
      "entities": [
        {
          "name": "Segra Field",
          "type": "venue",
          "entity_id": "9EmSHXr24jBgLAggFMVkZZ",
          "formatted_address": "Claudia Drive\nLeesburg, VA 20175\nUnited States of America"
        }
      ],
      "duration": 0,
      "start": "2021-07-02T23:30:00Z",
      "end": "2021-07-02T23:30:00Z",
      "predicted_end": "2021-07-03T01:20:00Z",
      "updated": "2021-05-25T00:39:49Z",
      "first_seen": "2021-04-28T05:27:36Z",
      "timezone": "America/New_York",
      "location": [
        -77.545266,
        39.07091
      ],
      "scope": "locality",
      "country": "US",
      "place_hierarchies": [
        [
          "6295630",
          "6255149",
          "6252001",
          "6254928",
          "4770746",
          "4788635"
        ],
        [
          "6295630",
          "6255149",
          "6252001",
          "6254928",
          "4770746",
          "4769125"
        ]
      ],
      "state": "active",
      "brand_safe": true,
      "private": false
    },
    {
      "relevance": 1,
      "id": "NojfFYqrrdvArCua9L",
      "title": "USL League Two - Western Mass Pioneers vs AC Connecticut",
      "description": "",
      "category": "sports",
      "labels": [
        "soccer",
        "sport"
      ],
      "rank": 50,
      "local_rank": 75,
      "aviation_rank": 0,
      "phq_attendance": 1010,
      "entities": [
        {
          "name": "Lusitano Stadium",
          "type": "venue",
          "entity_id": "TtNTHNcdb7EbqmtvrRkv7W",
          "formatted_address": "400 Winsor St\nLudlow, MA 01056\nUnited States"
        }
      ],
      "duration": 0,
      "start": "2021-07-02T23:30:00Z",
      "end": "2021-07-02T23:30:00Z",
      "predicted_end": "2021-07-03T01:20:00Z",
      "updated": "2021-05-26T05:19:18Z",
      "first_seen": "2021-05-12T04:20:39Z",
      "timezone": "America/New_York",
      "location": [
        -72.469308,
        42.158092
      ],
      "scope": "locality",
      "country": "US",
      "place_hierarchies": [
        [
          "6295630",
          "6255149",
          "6252001",
          "6254926",
          "4938741",
          "4942744"
        ]
      ],
      "state": "active",
      "brand_safe": true,
      "private": false
    },
    {
      "relevance": 1,
      "id": "VCptD4MeLYdKCaeiji",
      "title": "USL League Two - Peachtree City vs Southern Soccer Academy",
      "description": "",
      "category": "sports",
      "labels": [
        "soccer",
        "sport"
      ],
      "rank": 48,
      "local_rank": 79,
      "aviation_rank": 0,
      "phq_attendance": 800,
      "entities": [
        {
          "name": "Peachtree City MOBA Soccer",
          "type": "venue",
          "entity_id": "Ut9QZkPLANtdDqsG2YRMw3",
          "formatted_address": "1000 Old State Hwy 74\nPeachtree City, GA\nUnited States of America"
        }
      ],
      "duration": 0,
      "start": "2021-07-02T23:30:00Z",
      "end": "2021-07-02T23:30:00Z",
      "predicted_end": "2021-07-03T01:20:00Z",
      "updated": "2021-05-26T03:51:53Z",
      "first_seen": "2021-05-12T04:20:42Z",
      "timezone": "America/New_York",
      "location": [
        -84.562756,
        33.356493
      ],
      "scope": "locality",
      "country": "US",
      "place_hierarchies": [
        [
          "6295630",
          "6255149",
          "6252001",
          "4197000",
          "4194465",
          "4185667"
        ],
        [
          "6295630",
          "6255149",
          "6252001",
          "4197000",
          "4194465",
          "4194474"
        ]
      ],
      "state": "active",
      "brand_safe": true,
      "private": false
    },
    {
      "relevance": 1,
      "id": "WfW8recaEfXF6F5c7C",
      "title": "WPSL - Berlin vs Ambassadors Cleveland",
      "description": "",
      "category": "sports",
      "labels": [
        "soccer",
        "sport"
      ],
      "rank": 45,
      "local_rank": 74,
      "aviation_rank": null,
      "phq_attendance": 562,
      "entities": [],
      "duration": 0,
      "start": "2021-07-02T23:30:00Z",
      "end": "2021-07-02T23:30:00Z",
      "predicted_end": "2021-07-03T01:20:00Z",
      "updated": "2021-05-14T04:18:34Z",
      "first_seen": "2021-05-14T04:16:52Z",
      "timezone": "America/New_York",
      "location": [
        -78.830003,
        42.76395
      ],
      "scope": "locality",
      "country": "US",
      "place_hierarchies": [
        [
          "6295630",
          "6255149",
          "6252001",
          "5128638",
          "5116642",
          "8491351"
        ],
        [
          "6295630",
          "6255149",
          "6252001",
          "5128638",
          "5116642",
          "5110629"
        ]
      ],
      "state": "active",
      "brand_safe": true,
      "private": false
    },
    {
      "relevance": 1,
      "id": "oXD6vo8qqcYE966nnh",
      "title": "USL League Two - Asheville City vs Tormenta II",
      "description": "",
      "category": "sports",
      "labels": [
        "soccer",
        "sport"
      ],
      "rank": 45,
      "local_rank": 71,
      "aviation_rank": null,
      "phq_attendance": 562,
      "entities": [],
      "duration": 0,
      "start": "2021-07-02T23:30:00Z",
      "end": "2021-07-02T23:30:00Z",
      "predicted_end": "2021-07-03T01:20:00Z",
      "updated": "2021-05-12T04:22:37Z",
      "first_seen": "2021-05-12T04:20:42Z",
      "timezone": "America/New_York",
      "location": [
        -82.56944,
        35.616953
      ],
      "scope": "locality",
      "country": "US",
      "place_hierarchies": [
        [
          "6295630",
          "6255149",
          "6252001",
          "4482348",
          "4458155",
          "4453066"
        ],
        [
          "6295630",
          "6255149",
          "6252001",
          "4482348",
          "4458155",
          "4500008"
        ]
      ],
      "state": "active",
      "brand_safe": true,
      "private": false
    },
    {
      "relevance": 1,
      "id": "xE7JnzpLTdZ8kz7qnX",
      "title": "Toronto Argonauts vs Ottawa Redblacks",
      "description": "",
      "category": "sports",
      "labels": [
        "american-football",
        "sport"
      ],
      "rank": 24,
      "local_rank": 39,
      "aviation_rank": 0,
      "phq_attendance": 50,
      "entities": [
        {
          "name": "TD Place Stadium",
          "type": "venue",
          "entity_id": "AERjttrsH3JfdQuKqpdVSh",
          "formatted_address": "1015 Bank Street\nOttawa, ON K1S 3W7\nCanada"
        }
      ],
      "duration": 0,
      "start": "2021-07-02T23:30:00Z",
      "end": "2021-07-02T23:30:00Z",
      "predicted_end": "2021-07-03T02:25:00Z",
      "updated": "2021-05-26T05:39:42Z",
      "first_seen": "2020-12-18T00:22:00Z",
      "timezone": "America/Toronto",
      "location": [
        -75.683468,
        45.398209
      ],
      "scope": "locality",
      "country": "CA",
      "place_hierarchies": [
        [
          "6295630",
          "6255149",
          "6251999",
          "6093943",
          "6094817"
        ],
        [
          "6295630",
          "6255149",
          "6251999",
          "6093943",
          "8581623",
          "6122172"
        ]
      ],
      "state": "active",
      "brand_safe": true,
      "private": false
    },
    {
      "relevance": 1,
      "id": "NroLS9nbLV5uQT57Tt",
      "title": "Miami Marlins vs Atlanta Braves",
      "description": "",
      "category": "sports",
      "labels": [
        "baseball",
        "mlb",
        "sport"
      ],
      "rank": 80,
      "local_rank": 100,
      "aviation_rank": 67,
      "phq_attendance": 30404,
      "entities": [
        {
          "name": "Truist Park",
          "type": "venue",
          "entity_id": "8hgRHWZHTSULXWNsVPdUF4",
          "formatted_address": "755 Battery Avenue Southeast\nAtlanta, GA 30339\nUnited States of America"
        }
      ],
      "duration": 0,
      "start": "2021-07-02T23:20:00Z",
      "end": "2021-07-02T23:20:00Z",
      "predicted_end": "2021-07-03T02:10:00Z",
      "updated": "2021-05-25T00:38:29Z",
      "first_seen": "2020-07-17T18:30:51Z",
      "timezone": "America/New_York",
      "location": [
        -84.467771,
        33.890785
      ],
      "scope": "locality",
      "country": "US",
      "place_hierarchies": [
        [
          "6295630",
          "6255149",
          "6252001",
          "4197000",
          "4188547",
          "4207783"
        ],
        [
          "6295630",
          "6255149",
          "6252001",
          "4197000",
          "4188547",
          "4213763"
        ]
      ],
      "state": "active",
      "brand_safe": true,
      "private": false
    }
  ]
}